{
    "title": "1.General",
    "text": ["This DPA sets out data protection, security and confidentiality requirements with regard to the Processing of Personal Data (as each of these phrases is defined below) that is collected, disclosed, stored, accessed or otherwise processed by RecruitGenius.ai for the purpose of providing the Services."]
  }
  